# Tests
depressionTest1, CES-D

# Labels
label1,somatic
label2,depressive
label3,positive
label4,interpersonal

# Questions
question1,depressionTest1,label1,I was bothered by things that usually don’t bother me.
question2,depressionTest1,label1,"I did not feel like eating, I wasn’t very hungry."
question3,depressionTest1,label2,I wasn’t able to feel happy even when my family or friends tried to help me feel better.
question4,depressionTest1,label3,I felt like I was just as good as other kids.
question5,depressionTest1,label1,I felt like I couldn’t pay attention to what I was doing.
question6,depressionTest1,label2,I felt down and unhappy.
question7,depressionTest1,label1,I felt like I was too tired to do things.
question8,depressionTest1,label3,I felt like something good was going to happen.
question9,depressionTest1,label2,I felt like things I did before didn’t work out right.
question10,depressionTest1,label2,I felt scared.
question11,depressionTest1,label1,I didn’t sleep as well as I usually sleep.
question12,depressionTest1,label3,I was happy.
question13,depressionTest1,label1,I was more quiet than usual.
question14,depressionTest1,label2,"I felt lonely, like I didn’t have any friends."
question15,depressionTest1,label4,I felt like kids I know were not friendly or that they didn’t want to be with me.
question16,depressionTest1,label3,I had a good time.
question17,depressionTest1,label2,I felt like crying.
question18,depressionTest1,label2,I felt sad.
question19,depressionTest1,label4,I felt people didn’t like me.
question20,depressionTest1,label1,It was hard to get started doing things.

# Answers
question1answer1,question1,not at all,0
question1answer2,question1,a little,1
question1answer3,question1,some,2
question1answer4,question1,a lot,3
question2answer1,question2,not at all,0
question2answer2,question2,a little,1
question2answer3,question2,some,2
question2answer4,question2,a lot,3
question3answer1,question3,not at all,0
question3answer2,question3,a little,1
question3answer3,question3,some,2
question3answer4,question3,a lot,3
question4answer1,question4,not at all,3
question4answer2,question4,a little,2
question4answer3,question4,some,1
question4answer4,question4,a lot,0
question5answer1,question5,not at all,0
question5answer2,question5,a little,1
question5answer3,question5,some,2
question5answer4,question5,a lot,3
question6answer1,question6,not at all,0
question6answer2,question6,a little,1
question6answer3,question6,some,2
question6answer4,question6,a lot,3
question7answer1,question7,not at all,0
question7answer2,question7,a little,1
question7answer3,question7,some,2
question7answer4,question7,a lot,3
question8answer1,question8,not at all,3
question8answer2,question8,a little,2
question8answer3,question8,some,1
question8answer4,question8,a lot,0
question9answer1,question9,not at all,0
question9answer2,question9,a little,1
question9answer3,question9,some,2
question9answer4,question9,a lot,3
question10answer1,question10,not at all,0
question10answer2,question10,a little,1
question10answer3,question10,some,2
question10answer4,question10,a lot,3
question11answer1,question11,not at all,0
question11answer2,question11,a little,1
question11answer3,question11,some,2
question11answer4,question11,a lot,3
question12answer1,question12,not at all,3
question12answer2,question12,a little,2
question12answer3,question12,some,1
question12answer4,question12,a lot,0
question13answer1,question13,not at all,0
question13answer2,question13,a little,1
question13answer3,question13,some,2
question13answer4,question13,a lot,3
question14answer1,question14,not at all,0
question14answer2,question14,a little,1
question14answer3,question14,some,2
question14answer4,question14,a lot,3
question15answer1,question15,not at all,0
question15answer2,question15,a little,1
question15answer3,question15,some,2
question15answer4,question15,a lot,3
question16answer1,question16,not at all,3
question16answer2,question16,a little,2
question16answer3,question16,some,1
question16answer4,question16,a lot,0
question17answer1,question17,not at all,0
question17answer2,question17,a little,1
question17answer3,question17,some,2
question17answer4,question17,a lot,3
question18answer1,question18,not at all,0
question18answer2,question18,a little,1
question18answer3,question18,some,2
question18answer4,question18,a lot,3
question19answer1,question19,not at all,0
question19answer2,question19,a little,1
question19answer3,question19,some,2
question19answer4,question19,a lot,3
question20answer1,question20,not at all,0
question20answer2,question20,a little,1
question20answer3,question20,some,2
question20answer4,question20,a lot,3

# Follow Ups
followup1,Find Help
followup2,Meditation Course
followup3,Read about depression
